"productInteractionTypeId","productInteractionTypeName","createdAt","updatedAt"
1,"PRODUCT_DETAIL","2015-10-29 01:37:00","2015-10-29 01:37:00"
5,"SEND","2015-10-29 01:37:00","2015-10-29 01:37:00"
6,"VISIT_DETAIL","2015-10-29 01:37:00","2015-10-29 01:37:00"
