{"runId": "3", "repId": 1001, "startDateLocal": "2018-02-03", "startDateTime": "2018-02-03T00:00:00.000-08:00", "publishedDate": "2018-02-03 00:00:00"}
{"runId": "3", "repId": 1002, "startDateLocal": "2018-02-03", "startDateTime": "2018-02-03T00:00:00.000-08:00", "publishedDate": "2018-02-03 00:00:00"}
{"runId": "3", "repId": 1003, "startDateLocal": "2018-02-03", "startDateTime": "2018-02-03T00:00:00.000-08:00", "publishedDate": "2018-02-03 00:00:00"}
{"runId": "3", "repId": 1004, "startDateLocal": "2018-02-03", "startDateTime": "2018-02-03T00:00:00.000-08:00", "publishedDate": "2018-02-03 00:00:00"}
{"runId": "3", "repId": 1005, "startDateLocal": "2018-02-03", "startDateTime": "2018-02-03T00:00:00.000-08:00", "publishedDate": "2018-02-03 00:00:00"}
{"runId": "3", "repId": 1006, "startDateLocal": "2018-02-03", "startDateTime": "2018-02-03T00:00:00.000-08:00", "publishedDate": "2018-02-03 00:00:00"}
{"runId": "3", "repId": 1007, "startDateLocal": "2018-02-03", "startDateTime": "2018-02-03T00:00:00.000-08:00", "publishedDate": "2018-02-03 00:00:00"}
{"runId": "3", "repId": 1008, "startDateLocal": "2018-02-03", "startDateTime": "2018-02-03T00:00:00.000-08:00", "publishedDate": "2018-02-03 00:00:00"}
{"runId": "3", "repId": 1009, "startDateLocal": "2018-02-03", "startDateTime": "2018-02-03T00:00:00.000-08:00", "publishedDate": "2018-02-03 00:00:00"}
{"runId": "3", "repId": 1010, "startDateLocal": "2018-02-03", "startDateTime": "2018-02-03T00:00:00.000-08:00", "publishedDate": "2018-02-03 00:00:00"}
{"runId": "1", "repId": 1001, "startDateLocal": "2018-02-01", "startDateTime": "2018-02-01T00:00:00.000-08:00", "publishedDate": "2018-02-01 00:00:00"}
{"runId": "1", "repId": 1002, "startDateLocal": "2018-02-01", "startDateTime": "2018-02-01T00:00:00.000-08:00", "publishedDate": "2018-02-01 00:00:00"}
{"runId": "1", "repId": 1003, "startDateLocal": "2018-02-01", "startDateTime": "2018-02-01T00:00:00.000-08:00", "publishedDate": "2018-02-01 00:00:00"}
{"runId": "1", "repId": 1004, "startDateLocal": "2018-02-01", "startDateTime": "2018-02-01T00:00:00.000-08:00", "publishedDate": "2018-02-01 00:00:00"}
{"runId": "1", "repId": 1005, "startDateLocal": "2018-02-01", "startDateTime": "2018-02-01T00:00:00.000-08:00", "publishedDate": "2018-02-01 00:00:00"}
{"runId": "1", "repId": 1006, "startDateLocal": "2018-02-01", "startDateTime": "2018-02-01T00:00:00.000-08:00", "publishedDate": "2018-02-01 00:00:00"}
{"runId": "1", "repId": 1007, "startDateLocal": "2018-02-01", "startDateTime": "2018-02-01T00:00:00.000-08:00", "publishedDate": "2018-02-01 00:00:00"}
{"runId": "1", "repId": 1008, "startDateLocal": "2018-02-01", "startDateTime": "2018-02-01T00:00:00.000-08:00", "publishedDate": "2018-02-01 00:00:00"}
{"runId": "1", "repId": 1009, "startDateLocal": "2018-02-01", "startDateTime": "2018-02-01T00:00:00.000-08:00", "publishedDate": "2018-02-01 00:00:00"}
{"runId": "1", "repId": 1010, "startDateLocal": "2018-02-01", "startDateTime": "2018-02-01T00:00:00.000-08:00", "publishedDate": "2018-02-01 00:00:00"}
{"runId": "2", "repId": 1001, "startDateLocal": "2018-02-02", "startDateTime": "2018-02-02T00:00:00.000-08:00", "publishedDate": "2018-02-02 00:00:00"}
{"runId": "2", "repId": 1002, "startDateLocal": "2018-02-02", "startDateTime": "2018-02-02T00:00:00.000-08:00", "publishedDate": "2018-02-02 00:00:00"}
{"runId": "2", "repId": 1003, "startDateLocal": "2018-02-02", "startDateTime": "2018-02-02T00:00:00.000-08:00", "publishedDate": "2018-02-02 00:00:00"}
{"runId": "2", "repId": 1004, "startDateLocal": "2018-02-02", "startDateTime": "2018-02-02T00:00:00.000-08:00", "publishedDate": "2018-02-02 00:00:00"}
{"runId": "2", "repId": 1005, "startDateLocal": "2018-02-02", "startDateTime": "2018-02-02T00:00:00.000-08:00", "publishedDate": "2018-02-02 00:00:00"}
{"runId": "2", "repId": 1006, "startDateLocal": "2018-02-02", "startDateTime": "2018-02-02T00:00:00.000-08:00", "publishedDate": "2018-02-02 00:00:00"}
{"runId": "2", "repId": 1007, "startDateLocal": "2018-02-02", "startDateTime": "2018-02-02T00:00:00.000-08:00", "publishedDate": "2018-02-02 00:00:00"}
{"runId": "2", "repId": 1008, "startDateLocal": "2018-02-02", "startDateTime": "2018-02-02T00:00:00.000-08:00", "publishedDate": "2018-02-02 00:00:00"}
{"runId": "2", "repId": 1009, "startDateLocal": "2018-02-02", "startDateTime": "2018-02-02T00:00:00.000-08:00", "publishedDate": "2018-02-02 00:00:00"}
{"runId": "2", "repId": 1010, "startDateLocal": "2018-02-02", "startDateTime": "2018-02-02T00:00:00.000-08:00", "publishedDate": "2018-02-02 00:00:00"}
