repId, runId, publishedDate, startDateLocal, nextPublishedDate
1003,3,2018-02-03 00:00:00,2018-02-03,
1006,1,2018-02-01 00:00:00,2018-02-01,2018-02-02 00:00:00
1004,3,2018-02-03 00:00:00,2018-02-03,
1009,3,2018-02-03 00:00:00,2018-02-03,
1002,1,2018-02-01 00:00:00,2018-02-01,2018-02-02 00:00:00
1007,1,2018-02-01 00:00:00,2018-02-01,2018-02-02 00:00:00
1005,2,2018-02-02 00:00:00,2018-02-02,2018-02-03 00:00:00
1009,2,2018-02-02 00:00:00,2018-02-02,2018-02-03 00:00:00
1002,3,2018-02-03 00:00:00,2018-02-03,
1004,1,2018-02-01 00:00:00,2018-02-01,2018-02-02 00:00:00
1008,2,2018-02-02 00:00:00,2018-02-02,2018-02-03 00:00:00
1010,2,2018-02-02 00:00:00,2018-02-02,2018-02-03 00:00:00
1006,2,2018-02-02 00:00:00,2018-02-02,2018-02-03 00:00:00
1006,3,2018-02-03 00:00:00,2018-02-03,
1008,1,2018-02-01 00:00:00,2018-02-01,2018-02-02 00:00:00
1003,1,2018-02-01 00:00:00,2018-02-01,2018-02-02 00:00:00
1009,1,2018-02-01 00:00:00,2018-02-01,2018-02-02 00:00:00
1008,3,2018-02-03 00:00:00,2018-02-03,
1001,1,2018-02-01 00:00:00,2018-02-01,2018-02-02 00:00:00
1007,3,2018-02-03 00:00:00,2018-02-03,
1003,2,2018-02-02 00:00:00,2018-02-02,2018-02-03 00:00:00
1001,2,2018-02-02 00:00:00,2018-02-02,2018-02-03 00:00:00
1007,2,2018-02-02 00:00:00,2018-02-02,2018-02-03 00:00:00
1001,3,2018-02-03 00:00:00,2018-02-03,
1005,1,2018-02-01 00:00:00,2018-02-01,2018-02-02 00:00:00
1010,3,2018-02-03 00:00:00,2018-02-03,
1004,2,2018-02-02 00:00:00,2018-02-02,2018-02-03 00:00:00
1005,3,2018-02-03 00:00:00,2018-02-03,
1010,1,2018-02-01 00:00:00,2018-02-01,2018-02-02 00:00:00
1002,2,2018-02-02 00:00:00,2018-02-02,2018-02-03 00:00:00
